%YAML 1.1
%TAG !u! tag:unity3d.com,2011:
--- !u!687078895 &4343727234628468602
SpriteAtlas:
  m_ObjectHideFlags: 0
  m_CorrespondingSourceObject: {fileID: 0}
  m_PrefabInstance: {fileID: 0}
  m_PrefabAsset: {fileID: 0}
  m_Name: FadeAtlas
  m_EditorData:
    serializedVersion: 2
    textureSettings:
      serializedVersion: 2
      anisoLevel: 1
      compressionQuality: 50
      maxTextureSize: 2048
      textureCompression: 0
      filterMode: 1
      generateMipMaps: 0
      readable: 1
      crunchedCompression: 0
      sRGB: 1
    platformSettings:
    - serializedVersion: 2
      m_BuildTarget: Standalone
      m_MaxTextureSize: 4096
      m_ResizeAlgorithm: 0
      m_TextureFormat: 17
      m_TextureCompression: 1
      m_CompressionQuality: 50
      m_CrunchedCompression: 0
      m_AllowsAlphaSplitting: 0
      m_Overridden: 1
      m_AndroidETC2FallbackOverride: 0
    packingSettings:
      serializedVersion: 2
      padding: 4
      blockOffset: 1
      allowAlphaSplitting: 0
      enableRotation: 0
      enableTightPacking: 0
    variantMultiplier: 1
    packables:
    - {fileID: 102900000, guid: c143a639e68c13c49806fc61ebc9c386, type: 3}
    totalSpriteSurfaceArea: 1105920
    bindAsDefault: 1
  m_MasterAtlas: {fileID: 0}
  m_PackedSprites:
  - {fileID: 21300000, guid: 0c28d221068d17240b713f6623f200e4, type: 3}
  - {fileID: 21300000, guid: bc491541af8fc3f4d96de458e514446b, type: 3}
  - {fileID: 21300000, guid: be0e1982382339644bacf0a769baab52, type: 3}
  - {fileID: 21300000, guid: f81f56539913b1148a646ed82757c008, type: 3}
  - {fileID: 21300000, guid: 09e6b6a4fb0bb0a47b2f960927ca85b0, type: 3}
  - {fileID: 21300000, guid: 6a8b37b4c6c04544ab0d84cc3c55d4fe, type: 3}
  - {fileID: 21300000, guid: a384bed4977b5744d9306fde2586edbe, type: 3}
  - {fileID: 21300000, guid: 32ef18450e618594ca6aa283e8fbaae7, type: 3}
  - {fileID: 21300000, guid: 92302eb5b2d66a84bae0992838ca60ec, type: 3}
  - {fileID: 21300000, guid: 5e5efb0799ab4f34da38a6cff9e3ab83, type: 3}
  - {fileID: 21300000, guid: 1b45333757b558f45a3ff5e7c7477ccb, type: 3}
  - {fileID: 21300000, guid: a6ccb2775ec834240b696a62c4e04ffc, type: 3}
  - {fileID: 21300000, guid: b3f971a765ddfd24e9dd55e4a1282bdc, type: 3}
  - {fileID: 21300000, guid: 72a40bc7110ab704782dc170a490cf6d, type: 3}
  - {fileID: 21300000, guid: af4713e71091c7d42a448b09aa848908, type: 3}
  - {fileID: 21300000, guid: 7676d048d24d1384aa801d768633473f, type: 3}
  - {fileID: 21300000, guid: 7af371c8d74798c4b8a3e63b6a6f336c, type: 3}
  - {fileID: 21300000, guid: d2afe7696eb53de45bbb2148d04db613, type: 3}
  - {fileID: 21300000, guid: 982b8afa789d1ca43b873574e65f0af9, type: 3}
  - {fileID: 21300000, guid: c7e6a08b7dca4f94db3d3f5685564360, type: 3}
  - {fileID: 21300000, guid: a860d9fb9f4264d47b8296c66785fa93, type: 3}
  - {fileID: 21300000, guid: 84dce11c9c1097940ae159e438cc52c8, type: 3}
  - {fileID: 21300000, guid: a8d34f4c2087f994786f34c1d1960e98, type: 3}
  - {fileID: 21300000, guid: 2b3bea6cb768d3d4e8c0c32f75183a36, type: 3}
  - {fileID: 21300000, guid: 08009adc0c41fa846a69d2d9fe835786, type: 3}
  - {fileID: 21300000, guid: e7380ced9cdd70e4ab6878be2b5c69fd, type: 3}
  - {fileID: 21300000, guid: f927b80edb9a40a4085288d0170fc631, type: 3}
  - {fileID: 21300000, guid: 4bf4adae8b20b0f409c4ec2b2ebfe44b, type: 3}
  - {fileID: 21300000, guid: a46d0bdeaeea33640b907366adadafce, type: 3}
  - {fileID: 21300000, guid: 26ffa34f5aa3df04c9092925723de8ba, type: 3}
  m_PackedSpriteNamesToIndex:
  - 032
  - 009
  - 033
  - 022
  - 015
  - 029
  - 031
  - 006
  - 053
  - 081
  - 079
  - 013
  - 054
  - 034
  - 046
  - 095
  - 041
  - 014
  - 005
  - 052
  - 080
  - 051
  - 038
  - 030
  - 017
  - 008
  - 039
  - 018
  - 019
  - 021
  m_Tag: FadeAtlas
  m_IsVariant: 0
