%YAML 1.1
%TAG !u! tag:unity3d.com,2011:
--- !u!687078895 &4343727234628468602
SpriteAtlas:
  m_ObjectHideFlags: 0
  m_CorrespondingSourceObject: {fileID: 0}
  m_PrefabInstance: {fileID: 0}
  m_PrefabAsset: {fileID: 0}
  m_Name: UIAtlas
  m_EditorData:
    serializedVersion: 2
    textureSettings:
      serializedVersion: 2
      anisoLevel: 1
      compressionQuality: 50
      maxTextureSize: 2048
      textureCompression: 0
      filterMode: 1
      generateMipMaps: 0
      readable: 0
      crunchedCompression: 0
      sRGB: 1
    platformSettings: []
    packingSettings:
      serializedVersion: 2
      padding: 4
      blockOffset: 1
      allowAlphaSplitting: 0
      enableRotation: 0
      enableTightPacking: 0
    variantMultiplier: 1
    packables:
    - {fileID: 102900000, guid: 7faf90529f57f424786551e9967c58c2, type: 3}
    totalSpriteSurfaceArea: 337046
    bindAsDefault: 1
  m_MasterAtlas: {fileID: 0}
  m_PackedSprites:
  - {fileID: 21300000, guid: 5b061990e86a54c4d99bc17624d51f5e, type: 3}
  - {fileID: 21300000, guid: c6513cb3c2607214fbe459e5f1052a8a, type: 3}
  - {fileID: 21300000, guid: da93c98cca7857b4c993f3eac83cc28a, type: 3}
  - {fileID: 21300000, guid: 54db68cef120f1745be8ebed2d8aa620, type: 3}
  m_PackedSpriteNamesToIndex:
  - HP_Frame
  - Ladar
  - HP_Bar
  - Magatama
  m_Tag: UIAtlas
  m_IsVariant: 0
